Customer,Account,Amount,Code,Balance,Date
1,1,500,CIN,500,9/16/2015 9:30
1,1,200,COT,300,11/25/2015 11:00
1,1,1500,CIN,1800,11/26/2015 14:00
1,2,3000,CIN,3000,5/5/2014 17:22
1,1,200,COT,1600,1/2/2015 12:32
2,3,100,CIN,100,3/14/2016 22:40
2,3,45,COT,55,3/15/2016 3:30
1,2,1800,COT,1200,5/23/2016 17:00
2,3,500,CIN,555,4/7/2016 18:02
2,3,2000,CIN,2555,8/1/2016 0:35
Invalid
1,1,55,COT,1545,8/12/2015 14:23
Invalid
